{
  "680": {
    "thread_id": "680",
    "thread_date": "1515075151",
    "token": "BVFW",
    "last_message_date": "1516302087",
    "last_message_type": "regular",
    "last_message_by": "666",
    "last_message_by_level": "8",
    "last_message": "Hej",
    "status": "accepted",
    "order_date": "2018-01-20",
    "eating_time": "19:00",
    "num_people": "10",
    "price_to_chef": "5000.00",
    "currency": "dkk",
    "menu_title": "Nytårsmenu",
    "relations": {
      "665": {
        "id": "665",
        "firstname": "Ann-Sofie",
        "fb_id": null,
        "image": "user_665_SIbC7jWF8ENOG3Vz.jpg"
      },
      "666": {
        "id": "666",
        "firstname": "Viktor",
        "fb_id": null,
        "image": "user_666_MlYCdURAIPrVBsgW.jpg"
      }
    },
    "unread_messages": "1"
  },
  "681": {
    "thread_id": "681",
    "thread_date": "1515075714",
    "token": "IWXU",
    "last_message_date": "1516291056",
    "last_message_type": "regular",
    "last_message_by": "665",
    "last_message_by_level": "1",
    "last_message": "Kan du ændre bestillingen til 25 kuverter?",
    "status": "accepted",
    "order_date": "2018-01-31",
    "eating_time": "18:30",
    "num_people": "20",
    "price_to_chef": "6000.00",
    "currency": "dkk",
    "menu_title": "Vegetarmenu",
    "relations": {
      "665": {
        "id": "665",
        "firstname": "Ann-Sofie",
        "fb_id": null,
        "image": "user_665_SIbC7jWF8ENOG3Vz.jpg"
      },
      "666": {
        "id": "666",
        "firstname": "Viktor",
        "fb_id": null,
        "image": "user_666_MlYCdURAIPrVBsgW.jpg"
      }
    },
    "unread_messages": "3"
  },
  "705": {
    "thread_id": "705",
    "thread_date": "1515666399",
    "token": "9ZN1",
    "last_message_date": "1516191711",
    "last_message_type": "regular",
    "last_message_by": "906",
    "last_message_by_level": "1",
    "last_message": "Hej Viktor\r\n\r\nDet lyder super lækkert, meget gerne. Hvad er prisen?\r\n\r\nHilsen Louise",
    "status": "requested",
    "order_date": "2018-01-24",
    "eating_time": "19:00",
    "num_people": "8",
    "price_to_chef": "4000.00",
    "currency": "dkk",
    "menu_title": "Nytårsmenu",
    "relations": {
      "666": {
        "id": "666",
        "firstname": "Viktor",
        "fb_id": null,
        "image": "user_666_MlYCdURAIPrVBsgW.jpg"
      },
      "906": {
        "id": "906",
        "firstname": "Louise",
        "fb_id": "10212342192563928",
        "image": null
      }
    },
    "unread_messages": "1"
  },
  "716": {
    "thread_id": "716",
    "thread_date": "1516097411",
    "token": "6M2J",
    "last_message_date": "1516102989",
    "last_message_type": "regular",
    "last_message_by": "665",
    "last_message_by_level": "1",
    "last_message": "Hoooolllaaa",
    "status": "accepted",
    "order_date": "2018-02-01",
    "eating_time": "18:30",
    "num_people": "8",
    "price_to_chef": "2400.00",
    "currency": "dkk",
    "menu_title": "Vegetarmenu",
    "relations": {
      "665": {
        "id": "665",
        "firstname": "Ann-Sofie",
        "fb_id": null,
        "image": "user_665_SIbC7jWF8ENOG3Vz.jpg"
      },
      "666": {
        "id": "666",
        "firstname": "Viktor",
        "fb_id": null,
        "image": "user_666_MlYCdURAIPrVBsgW.jpg"
      }
    },
    "unread_messages": "2"
  },
  "721": {
    "thread_id": "721",
    "thread_date": "1516115388",
    "token": "ZIYQ",
    "last_message_date": "1516115437",
    "last_message_type": "regular",
    "last_message_by": "914",
    "last_message_by_level": "1",
    "last_message": "Hej Viktor! Jeg vil gerne bestille 11 kuverter til den 1. februar. Mvh Sarah",
    "status": "requested",
    "order_date": "2018-02-01",
    "eating_time": "19:00",
    "num_people": "11",
    "price_to_chef": "5500.00",
    "currency": "dkk",
    "menu_title": "Nytårsmenu",
    "relations": {
      "666": {
        "id": "666",
        "firstname": "Viktor",
        "fb_id": null,
        "image": "user_666_MlYCdURAIPrVBsgW.jpg"
      },
      "914": {
        "id": "914",
        "firstname": "Sarah",
        "fb_id": null,
        "image": null
      }
    },
    "unread_messages": "2"
  },
  "722": {
    "thread_id": "722",
    "thread_date": "1516115723",
    "token": "SZIU",
    "last_message_date": "1516115723",
    "last_message_type": "regular",
    "last_message_by": "915",
    "last_message_by_level": "1",
    "last_message": "Hej Viktor. \r\nKan jeg bestille 20 kuverter? \r\nTak på forhånd",
    "status": "requested",
    "order_date": "2018-01-29",
    "eating_time": "18:00",
    "num_people": "8",
    "price_to_chef": "4000.00",
    "currency": "dkk",
    "menu_title": "Nytårsmenu",
    "relations": {
      "666": {
        "id": "666",
        "firstname": "Viktor",
        "fb_id": null,
        "image": "user_666_MlYCdURAIPrVBsgW.jpg"
      },
      "915": {
        "id": "915",
        "firstname": "Frederik",
        "fb_id": null,
        "image": null
      }
    },
    "unread_messages": "2"
  }
}